{
  "type": "service_account",
  "project_id": "ifood-challenge-test",
  "private_key_id": "79264a25d0f1e706097612867df65e563a6293f5",
  "private_key": "-----BEGIN PRIVATE KEY-----\nMIIEvgIBADANBgkqhkiG9w0BAQEFAASCBKgwggSkAgEAAoIBAQCugV/vlZ1xs3up\nj5TTMbxlVSNqIQEX/+eejElUHrMQMUTCBuMAUrrTy8lNkR6Mq+aQQfyvzBSiMhzB\nhe8kqlmjB+ANk1/Ee8HE+HT24xLb7oTl60apDzcDBE9Gok2VhOoGd5CMewmGckwv\nT6nrclxo20DLVNlduFppb3EOkdaS6XvkOjFx1Y9vaYn+FMfwQdL71zWFVCT8/aV0\nBE5KuH+PDAmm4l9vuNqN+iIfBOqP3sfeIqafxhZvh7jhdRe8+71x3GFDgotTqesS\nfM+0Iv1zKOCQ4f/BE7ataPE0ercZu7TUqeTWI+ORlA0V67cUPvX81BRM6klvbR+w\nyFyj0Fx3AgMBAAECggEAEJ1GugkqTVSuVcLS2Oy8/X+Go1MdxzWDzZJDuluV5tka\nAnMkvQzODDOJ00sZd9aMrs1pi9SdXk1GdEfBMLd7WKH7pgSTCKJTx4zJmLvz5Av9\n4ToY/H2eBOPYfGbK240lDuqRUPQMlcgKEt291X805ygrhMXA+u2oxgMTO4o3vhLj\nz3zEL7Q0Kp4buV6YDaELE1D6P18HGRJZCAhcL0fVMupqmiPq+wfW9ARFSblrcu5e\nKx7veg2LcYobPgd8gtC95CV9dZIJuXE0sxQZC+U1x3BqmU7khqKuARWwgV8hinwK\n/TPfM3ySTuLhXQeHMyEdiWgTAJNnsvSJiDgRUMjwuQKBgQDgHfNOzIRSKJUXILU/\nHMVoizdSUiJ8rUPpn+XqQlMpyUfQ9wNC3GS9xwoh4YUZ7A4K22B84SBMLBmreHwK\npjedxg1Se0/vza7COqmcU2ppur/fUTcM9ZomvIDkXhMRzwM4Ed/AMs7QqrVH5YY6\n4JOdnn5Nf+YeyyfMvrJPXEHikwKBgQDHVKIsBngLF+H8zt0W83hWu1kF4ayOvzwM\nLD5+MilVKtx2GLQjCFxqFFWLxq5VXT3JRY+pH3jwongEdd3h2M2//DGtbyWab9s0\n68JYyCRC127Qyt5j9IyIK0m2lLF1VRqlw9WuxxcvV7rjVaP2Dgwrv/TMHxikUMF7\nSTfkPnqZDQKBgQCnqUBP/ugunnWKq8lrwZZdM2jbiN6L7wMTT6+spJmadR3o0iH6\nbu5emvyVhCUS02ld7egtBC4pTgSWJriFLvwEaBmnTuDqQTEv1Lr2W+EL382Svysz\n4rjDqdmy/j294ORDmfuNyXS23j5n3umgOkm0bNGIINqCxvCrVy4F+LrBSQKBgFsY\ni7DxF+WB+a6u343AoUuJ/WpZs6HdNdUeV0UXKZqZpv111sV36bw1JM9ncn7iyPz2\nBGy3TG804QKw10GC8qz91bo8ZIQLALRT1pL6jM/bYvKa9D3cImmM1vhRRjSoOzBs\nqnhg1nC1eFyy4+bsjpVj+b1brMhTe8kbMibmguL1AoGBAKmJkFUGPjJXa8nmJr8V\nUlhA+kDCDlSglIFI+regh8RclU4gGHQesTLtJShnqJfykl18UEP4o0TjR+3Y32I0\nuk/odJs8DtPZXMScwpvWQos6O4Jn3j3suUjR3x/gu6hpvxhAp5f0y55dm3DDXWSn\nNe9Ex2k3GchqIL4XeYLLS9g8\n-----END PRIVATE KEY-----\n",
  "client_email": "ifood-test-challenge@ifood-challenge-test.iam.gserviceaccount.com",
  "client_id": "114969315021064360101",
  "auth_uri": "https://accounts.google.com/o/oauth2/auth",
  "token_uri": "https://oauth2.googleapis.com/token",
  "auth_provider_x509_cert_url": "https://www.googleapis.com/oauth2/v1/certs",
  "client_x509_cert_url": "https://www.googleapis.com/robot/v1/metadata/x509/ifood-test-challenge%40ifood-challenge-test.iam.gserviceaccount.com"
}
